%YAML 1.1
%TAG !u! tag:unity3d.com,2011:
--- !u!29 &1
OcclusionCullingSettings:
  m_ObjectHideFlags: 0
  serializedVersion: 2
  m_OcclusionBakeSettings:
    smallestOccluder: 5
    smallestHole: 0.25
    backfaceThreshold: 100
  m_SceneGUID: 00000000000000000000000000000000
  m_OcclusionCullingData: {fileID: 0}
--- !u!104 &2
RenderSettings:
  m_ObjectHideFlags: 0
  serializedVersion: 9
  m_Fog: 0
  m_FogColor: {r: 0.5, g: 0.5, b: 0.5, a: 1}
  m_FogMode: 3
  m_FogDensity: 0.01
  m_LinearFogStart: 0
  m_LinearFogEnd: 300
  m_AmbientSkyColor: {r: 0.212, g: 0.227, b: 0.259, a: 1}
  m_AmbientEquatorColor: {r: 0.114, g: 0.125, b: 0.133, a: 1}
  m_AmbientGroundColor: {r: 0.047, g: 0.043, b: 0.035, a: 1}
  m_AmbientIntensity: 1
  m_AmbientMode: 0
  m_SubtractiveShadowColor: {r: 0.42, g: 0.478, b: 0.627, a: 1}
  m_SkyboxMaterial: {fileID: 10304, guid: 0000000000000000f000000000000000, type: 0}
  m_HaloStrength: 0.5
  m_FlareStrength: 1
  m_FlareFadeSpeed: 3
  m_HaloTexture: {fileID: 0}
  m_SpotCookie: {fileID: 10001, guid: 0000000000000000e000000000000000, type: 0}
  m_DefaultReflectionMode: 0
  m_DefaultReflectionResolution: 128
  m_ReflectionBounces: 1
  m_ReflectionIntensity: 1
  m_CustomReflection: {fileID: 0}
  m_Sun: {fileID: 0}
  m_IndirectSpecularColor: {r: 0, g: 0, b: 0, a: 1}
  m_UseRadianceAmbientProbe: 0
--- !u!157 &3
LightmapSettings:
  m_ObjectHideFlags: 0
  serializedVersion: 11
  m_GIWorkflowMode: 1
  m_GISettings:
    serializedVersion: 2
    m_BounceScale: 1
    m_IndirectOutputScale: 1
    m_AlbedoBoost: 1
    m_EnvironmentLightingMode: 0
    m_EnableBakedLightmaps: 1
    m_EnableRealtimeLightmaps: 0
  m_LightmapEditorSettings:
    serializedVersion: 12
    m_Resolution: 2
    m_BakeResolution: 40
    m_AtlasSize: 1024
    m_AO: 0
    m_AOMaxDistance: 1
    m_CompAOExponent: 1
    m_CompAOExponentDirect: 0
    m_ExtractAmbientOcclusion: 0
    m_Padding: 2
    m_LightmapParameters: {fileID: 0}
    m_LightmapsBakeMode: 1
    m_TextureCompression: 1
    m_FinalGather: 0
    m_FinalGatherFiltering: 1
    m_FinalGatherRayCount: 256
    m_ReflectionCompression: 2
    m_MixedBakeMode: 2
    m_BakeBackend: 1
    m_PVRSampling: 1
    m_PVRDirectSampleCount: 32
    m_PVRSampleCount: 512
    m_PVRBounces: 2
    m_PVREnvironmentSampleCount: 256
    m_PVREnvironmentReferencePointCount: 2048
    m_PVRFilteringMode: 1
    m_PVRDenoiserTypeDirect: 1
    m_PVRDenoiserTypeIndirect: 1
    m_PVRDenoiserTypeAO: 1
    m_PVRFilterTypeDirect: 0
    m_PVRFilterTypeIndirect: 0
    m_PVRFilterTypeAO: 0
    m_PVREnvironmentMIS: 1
    m_PVRCulling: 1
    m_PVRFilteringGaussRadiusDirect: 1
    m_PVRFilteringGaussRadiusIndirect: 5
    m_PVRFilteringGaussRadiusAO: 2
    m_PVRFilteringAtrousPositionSigmaDirect: 0.5
    m_PVRFilteringAtrousPositionSigmaIndirect: 2
    m_PVRFilteringAtrousPositionSigmaAO: 1
    m_ExportTrainingData: 0
    m_TrainingDataDestination: TrainingData
    m_LightProbeSampleCountMultiplier: 4
  m_LightingDataAsset: {fileID: 0}
  m_UseShadowmask: 1
--- !u!196 &4
NavMeshSettings:
  serializedVersion: 2
  m_ObjectHideFlags: 0
  m_BuildSettings:
    serializedVersion: 2
    agentTypeID: 0
    agentRadius: 0.5
    agentHeight: 2
    agentSlope: 45
    agentClimb: 0.4
    ledgeDropHeight: 0
    maxJumpAcrossDistance: 0
    minRegionArea: 2
    manualCellSize: 0
    cellSize: 0.16666667
    manualTileSize: 0
    tileSize: 256
    accuratePlacement: 0
    debug:
      m_Flags: 0
  m_NavMeshData: {fileID: 0}
--- !u!1001 &287863862
PrefabInstance:
  m_ObjectHideFlags: 0
  serializedVersion: 2
  m_Modification:
    m_TransformParent: {fileID: 0}
    m_Modifications:
    - target: {fileID: 1991219941496362, guid: 9d620787554a948e3876fe7dbdba24e8, type: 3}
      propertyPath: m_Name
      value: Ellen
      objectReference: {fileID: 0}
    - target: {fileID: 1991219941496362, guid: 9d620787554a948e3876fe7dbdba24e8, type: 3}
      propertyPath: m_TagString
      value: Player
      objectReference: {fileID: 0}
    - target: {fileID: 4035643436854338, guid: 9d620787554a948e3876fe7dbdba24e8, type: 3}
      propertyPath: m_LocalPosition.x
      value: -11.79
      objectReference: {fileID: 0}
    - target: {fileID: 4035643436854338, guid: 9d620787554a948e3876fe7dbdba24e8, type: 3}
      propertyPath: m_LocalPosition.y
      value: 0
      objectReference: {fileID: 0}
    - target: {fileID: 4035643436854338, guid: 9d620787554a948e3876fe7dbdba24e8, type: 3}
      propertyPath: m_LocalPosition.z
      value: 10.72
      objectReference: {fileID: 0}
    - target: {fileID: 4035643436854338, guid: 9d620787554a948e3876fe7dbdba24e8, type: 3}
      propertyPath: m_LocalRotation.x
      value: 0
      objectReference: {fileID: 0}
    - target: {fileID: 4035643436854338, guid: 9d620787554a948e3876fe7dbdba24e8, type: 3}
      propertyPath: m_LocalRotation.y
      value: 0
      objectReference: {fileID: 0}
    - target: {fileID: 4035643436854338, guid: 9d620787554a948e3876fe7dbdba24e8, type: 3}
      propertyPath: m_LocalRotation.z
      value: 0
      objectReference: {fileID: 0}
    - target: {fileID: 4035643436854338, guid: 9d620787554a948e3876fe7dbdba24e8, type: 3}
      propertyPath: m_LocalRotation.w
      value: 1
      objectReference: {fileID: 0}
    - target: {fileID: 4035643436854338, guid: 9d620787554a948e3876fe7dbdba24e8, type: 3}
      propertyPath: m_RootOrder
      value: 2
      objectReference: {fileID: 0}
    - target: {fileID: 4035643436854338, guid: 9d620787554a948e3876fe7dbdba24e8, type: 3}
      propertyPath: m_LocalEulerAnglesHint.x
      value: 0
      objectReference: {fileID: 0}
    - target: {fileID: 4035643436854338, guid: 9d620787554a948e3876fe7dbdba24e8, type: 3}
      propertyPath: m_LocalEulerAnglesHint.y
      value: 0
      objectReference: {fileID: 0}
    - target: {fileID: 4035643436854338, guid: 9d620787554a948e3876fe7dbdba24e8, type: 3}
      propertyPath: m_LocalEulerAnglesHint.z
      value: 0
      objectReference: {fileID: 0}
    m_RemovedComponents: []
  m_SourcePrefab: {fileID: 100100000, guid: 9d620787554a948e3876fe7dbdba24e8, type: 3}
--- !u!4 &287863863 stripped
Transform:
  m_CorrespondingSourceObject: {fileID: 4035643436854338, guid: 9d620787554a948e3876fe7dbdba24e8,
    type: 3}
  m_PrefabInstance: {fileID: 287863862}
  m_PrefabAsset: {fileID: 0}
--- !u!4 &287863864 stripped
Transform:
  m_CorrespondingSourceObject: {fileID: 4869608699489792, guid: 9d620787554a948e3876fe7dbdba24e8,
    type: 3}
  m_PrefabInstance: {fileID: 287863862}
  m_PrefabAsset: {fileID: 0}
--- !u!1 &856168483
GameObject:
  m_ObjectHideFlags: 0
  m_CorrespondingSourceObject: {fileID: 0}
  m_PrefabInstance: {fileID: 0}
  m_PrefabAsset: {fileID: 0}
  serializedVersion: 6
  m_Component:
  - component: {fileID: 856168485}
  - component: {fileID: 856168484}
  m_Layer: 0
  m_Name: Directional Light
  m_TagString: Untagged
  m_Icon: {fileID: 0}
  m_NavMeshLayer: 0
  m_StaticEditorFlags: 0
  m_IsActive: 1
--- !u!108 &856168484
Light:
  m_ObjectHideFlags: 0
  m_CorrespondingSourceObject: {fileID: 0}
  m_PrefabInstance: {fileID: 0}
  m_PrefabAsset: {fileID: 0}
  m_GameObject: {fileID: 856168483}
  m_Enabled: 1
  serializedVersion: 10
  m_Type: 1
  m_Shape: 0
  m_Color: {r: 1, g: 0.95686275, b: 0.8392157, a: 1}
  m_Intensity: 1
  m_Range: 10
  m_SpotAngle: 30
  m_InnerSpotAngle: 21.80208
  m_CookieSize: 10
  m_Shadows:
    m_Type: 2
    m_Resolution: -1
    m_CustomResolution: -1
    m_Strength: 1
    m_Bias: 0.05
    m_NormalBias: 0.4
    m_NearPlane: 0.2
    m_CullingMatrixOverride:
      e00: 1
      e01: 0
      e02: 0
      e03: 0
      e10: 0
      e11: 1
      e12: 0
      e13: 0
      e20: 0
      e21: 0
      e22: 1
      e23: 0
      e30: 0
      e31: 0
      e32: 0
      e33: 1
    m_UseCullingMatrixOverride: 0
  m_Cookie: {fileID: 0}
  m_DrawHalo: 0
  m_Flare: {fileID: 0}
  m_RenderMode: 0
  m_CullingMask:
    serializedVersion: 2
    m_Bits: 4294967295
  m_RenderingLayerMask: 1
  m_Lightmapping: 4
  m_LightShadowCasterMode: 0
  m_AreaSize: {x: 1, y: 1}
  m_BounceIntensity: 1
  m_ColorTemperature: 6570
  m_UseColorTemperature: 0
  m_BoundingSphereOverride: {x: 0, y: 0, z: 0, w: 0}
  m_UseBoundingSphereOverride: 0
  m_ShadowRadius: 0
  m_ShadowAngle: 0
--- !u!4 &856168485
Transform:
  m_ObjectHideFlags: 0
  m_CorrespondingSourceObject: {fileID: 0}
  m_PrefabInstance: {fileID: 0}
  m_PrefabAsset: {fileID: 0}
  m_GameObject: {fileID: 856168483}
  m_LocalRotation: {x: 0.65042967, y: -0.2572223, z: 0.04510087, w: 0.7132629}
  m_LocalPosition: {x: 0, y: 3, z: 0}
  m_LocalScale: {x: 1, y: 1, z: 1}
  m_Children: []
  m_Father: {fileID: 0}
  m_RootOrder: 0
  m_LocalEulerAnglesHint: {x: 72, y: -86, z: -61}
--- !u!1001 &1011757036
PrefabInstance:
  m_ObjectHideFlags: 0
  serializedVersion: 2
  m_Modification:
    m_TransformParent: {fileID: 0}
    m_Modifications:
    - target: {fileID: 1422052931835420, guid: 1fac0dae54de3224181696b709bb4d66, type: 3}
      propertyPath: m_Name
      value: CameraRig
      objectReference: {fileID: 0}
    - target: {fileID: 4405054866690174, guid: 1fac0dae54de3224181696b709bb4d66, type: 3}
      propertyPath: m_LocalRotation.x
      value: -0.0126674045
      objectReference: {fileID: 0}
    - target: {fileID: 4405054866690174, guid: 1fac0dae54de3224181696b709bb4d66, type: 3}
      propertyPath: m_LocalRotation.y
      value: 0.0000003375975
      objectReference: {fileID: 0}
    - target: {fileID: 4405054866690174, guid: 1fac0dae54de3224181696b709bb4d66, type: 3}
      propertyPath: m_LocalRotation.z
      value: -0.0000000034880006
      objectReference: {fileID: 0}
    - target: {fileID: 4405054866690174, guid: 1fac0dae54de3224181696b709bb4d66, type: 3}
      propertyPath: m_LocalRotation.w
      value: -0.9999198
      objectReference: {fileID: 0}
    - target: {fileID: 4405054866690174, guid: 1fac0dae54de3224181696b709bb4d66, type: 3}
      propertyPath: m_LocalPosition.x
      value: 22.840012
      objectReference: {fileID: 0}
    - target: {fileID: 4405054866690174, guid: 1fac0dae54de3224181696b709bb4d66, type: 3}
      propertyPath: m_LocalPosition.y
      value: -6.9929976
      objectReference: {fileID: 0}
    - target: {fileID: 4405054866690174, guid: 1fac0dae54de3224181696b709bb4d66, type: 3}
      propertyPath: m_LocalPosition.z
      value: 62.059998
      objectReference: {fileID: 0}
    - target: {fileID: 4864495072746176, guid: 1fac0dae54de3224181696b709bb4d66, type: 3}
      propertyPath: m_LocalPosition.x
      value: 1.1099892
      objectReference: {fileID: 0}
    - target: {fileID: 4864495072746176, guid: 1fac0dae54de3224181696b709bb4d66, type: 3}
      propertyPath: m_LocalPosition.y
      value: 10.380998
      objectReference: {fileID: 0}
    - target: {fileID: 4864495072746176, guid: 1fac0dae54de3224181696b709bb4d66, type: 3}
      propertyPath: m_LocalPosition.z
      value: -1.7699966
      objectReference: {fileID: 0}
    - target: {fileID: 4864495072746176, guid: 1fac0dae54de3224181696b709bb4d66, type: 3}
      propertyPath: m_LocalRotation.x
      value: 0
      objectReference: {fileID: 0}
    - target: {fileID: 4864495072746176, guid: 1fac0dae54de3224181696b709bb4d66, type: 3}
      propertyPath: m_LocalRotation.y
      value: 0
      objectReference: {fileID: 0}
    - target: {fileID: 4864495072746176, guid: 1fac0dae54de3224181696b709bb4d66, type: 3}
      propertyPath: m_LocalRotation.z
      value: 0
      objectReference: {fileID: 0}
    - target: {fileID: 4864495072746176, guid: 1fac0dae54de3224181696b709bb4d66, type: 3}
      propertyPath: m_LocalRotation.w
      value: 1
      objectReference: {fileID: 0}
    - target: {fileID: 4864495072746176, guid: 1fac0dae54de3224181696b709bb4d66, type: 3}
      propertyPath: m_RootOrder
      value: 1
      objectReference: {fileID: 0}
    - target: {fileID: 4864495072746176, guid: 1fac0dae54de3224181696b709bb4d66, type: 3}
      propertyPath: m_LocalEulerAnglesHint.x
      value: 0
      objectReference: {fileID: 0}
    - target: {fileID: 4864495072746176, guid: 1fac0dae54de3224181696b709bb4d66, type: 3}
      propertyPath: m_LocalEulerAnglesHint.y
      value: 0
      objectReference: {fileID: 0}
    - target: {fileID: 4864495072746176, guid: 1fac0dae54de3224181696b709bb4d66, type: 3}
      propertyPath: m_LocalEulerAnglesHint.z
      value: 0
      objectReference: {fileID: 0}
    - target: {fileID: 20494501241764970, guid: 1fac0dae54de3224181696b709bb4d66,
        type: 3}
      propertyPath: m_ClearFlags
      value: 1
      objectReference: {fileID: 0}
    - target: {fileID: 20494501241764970, guid: 1fac0dae54de3224181696b709bb4d66,
        type: 3}
      propertyPath: near clip plane
      value: 0.1
      objectReference: {fileID: 0}
    - target: {fileID: 114203780446379988, guid: 1fac0dae54de3224181696b709bb4d66,
        type: 3}
      propertyPath: antialiasingMode
      value: 0
      objectReference: {fileID: 0}
    - target: {fileID: 114290708936933726, guid: 1fac0dae54de3224181696b709bb4d66,
        type: 3}
      propertyPath: follow
      value: 
      objectReference: {fileID: 287863863}
    - target: {fileID: 114290708936933726, guid: 1fac0dae54de3224181696b709bb4d66,
        type: 3}
      propertyPath: lookAt
      value: 
      objectReference: {fileID: 287863864}
    - target: {fileID: 114761749801698018, guid: 1fac0dae54de3224181696b709bb4d66,
        type: 3}
      propertyPath: m_Orbits.Array.data[2].m_Height
      value: 0.62
      objectReference: {fileID: 0}
    - target: {fileID: 114761749801698018, guid: 1fac0dae54de3224181696b709bb4d66,
        type: 3}
      propertyPath: m_Orbits.Array.data[2].m_Radius
      value: 3
      objectReference: {fileID: 0}
    - target: {fileID: 114761749801698018, guid: 1fac0dae54de3224181696b709bb4d66,
        type: 3}
      propertyPath: m_Orbits.Array.data[1].m_Height
      value: 1
      objectReference: {fileID: 0}
    - target: {fileID: 114761749801698018, guid: 1fac0dae54de3224181696b709bb4d66,
        type: 3}
      propertyPath: m_Orbits.Array.data[0].m_Height
      value: 1.6
      objectReference: {fileID: 0}
    - target: {fileID: 114761749801698018, guid: 1fac0dae54de3224181696b709bb4d66,
        type: 3}
      propertyPath: m_Orbits.Array.data[0].m_Radius
      value: 5.5
      objectReference: {fileID: 0}
    m_RemovedComponents: []
  m_SourcePrefab: {fileID: 100100000, guid: 1fac0dae54de3224181696b709bb4d66, type: 3}
--- !u!1001 &1107904083
PrefabInstance:
  m_ObjectHideFlags: 0
  serializedVersion: 2
  m_Modification:
    m_TransformParent: {fileID: 0}
    m_Modifications:
    - target: {fileID: 2461145003872738342, guid: a55f88977eaece745b6779ee54cae398,
        type: 3}
      propertyPath: m_LocalPosition.x
      value: -2.0007973
      objectReference: {fileID: 0}
    - target: {fileID: 2461145003872738342, guid: a55f88977eaece745b6779ee54cae398,
        type: 3}
      propertyPath: m_LocalPosition.y
      value: -0.48313782
      objectReference: {fileID: 0}
    - target: {fileID: 2461145003872738342, guid: a55f88977eaece745b6779ee54cae398,
        type: 3}
      propertyPath: m_LocalPosition.z
      value: 2
      objectReference: {fileID: 0}
    - target: {fileID: 2461145003872738342, guid: a55f88977eaece745b6779ee54cae398,
        type: 3}
      propertyPath: m_LocalRotation.x
      value: 0
      objectReference: {fileID: 0}
    - target: {fileID: 2461145003872738342, guid: a55f88977eaece745b6779ee54cae398,
        type: 3}
      propertyPath: m_LocalRotation.y
      value: 0
      objectReference: {fileID: 0}
    - target: {fileID: 2461145003872738342, guid: a55f88977eaece745b6779ee54cae398,
        type: 3}
      propertyPath: m_LocalRotation.z
      value: 0
      objectReference: {fileID: 0}
    - target: {fileID: 2461145003872738342, guid: a55f88977eaece745b6779ee54cae398,
        type: 3}
      propertyPath: m_LocalRotation.w
      value: 1
      objectReference: {fileID: 0}
    - target: {fileID: 2461145003872738342, guid: a55f88977eaece745b6779ee54cae398,
        type: 3}
      propertyPath: m_RootOrder
      value: 3
      objectReference: {fileID: 0}
    - target: {fileID: 2461145003872738342, guid: a55f88977eaece745b6779ee54cae398,
        type: 3}
      propertyPath: m_LocalEulerAnglesHint.x
      value: 0
      objectReference: {fileID: 0}
    - target: {fileID: 2461145003872738342, guid: a55f88977eaece745b6779ee54cae398,
        type: 3}
      propertyPath: m_LocalEulerAnglesHint.y
      value: 0
      objectReference: {fileID: 0}
    - target: {fileID: 2461145003872738342, guid: a55f88977eaece745b6779ee54cae398,
        type: 3}
      propertyPath: m_LocalEulerAnglesHint.z
      value: 0
      objectReference: {fileID: 0}
    - target: {fileID: 2461145003872738343, guid: a55f88977eaece745b6779ee54cae398,
        type: 3}
      propertyPath: m_Name
      value: Environment
      objectReference: {fileID: 0}
    m_RemovedComponents: []
  m_SourcePrefab: {fileID: 100100000, guid: a55f88977eaece745b6779ee54cae398, type: 3}
--- !u!4 &1107904084 stripped
Transform:
  m_CorrespondingSourceObject: {fileID: 2461145003872738342, guid: a55f88977eaece745b6779ee54cae398,
    type: 3}
  m_PrefabInstance: {fileID: 1107904083}
  m_PrefabAsset: {fileID: 0}
--- !u!1001 &1525849758
PrefabInstance:
  m_ObjectHideFlags: 0
  serializedVersion: 2
  m_Modification:
    m_TransformParent: {fileID: 1107904084}
    m_Modifications:
    - target: {fileID: 8372240870704346548, guid: 76eec16fc361c3e49b6d29db4a5f198b,
        type: 3}
      propertyPath: m_Name
      value: Points
      objectReference: {fileID: 0}
    - target: {fileID: 8372240870704346549, guid: 76eec16fc361c3e49b6d29db4a5f198b,
        type: 3}
      propertyPath: m_LocalPosition.x
      value: 0
      objectReference: {fileID: 0}
    - target: {fileID: 8372240870704346549, guid: 76eec16fc361c3e49b6d29db4a5f198b,
        type: 3}
      propertyPath: m_LocalPosition.y
      value: 0
      objectReference: {fileID: 0}
    - target: {fileID: 8372240870704346549, guid: 76eec16fc361c3e49b6d29db4a5f198b,
        type: 3}
      propertyPath: m_LocalPosition.z
      value: 0
      objectReference: {fileID: 0}
    - target: {fileID: 8372240870704346549, guid: 76eec16fc361c3e49b6d29db4a5f198b,
        type: 3}
      propertyPath: m_LocalRotation.x
      value: 0
      objectReference: {fileID: 0}
    - target: {fileID: 8372240870704346549, guid: 76eec16fc361c3e49b6d29db4a5f198b,
        type: 3}
      propertyPath: m_LocalRotation.y
      value: 0
      objectReference: {fileID: 0}
    - target: {fileID: 8372240870704346549, guid: 76eec16fc361c3e49b6d29db4a5f198b,
        type: 3}
      propertyPath: m_LocalRotation.z
      value: 0
      objectReference: {fileID: 0}
    - target: {fileID: 8372240870704346549, guid: 76eec16fc361c3e49b6d29db4a5f198b,
        type: 3}
      propertyPath: m_LocalRotation.w
      value: 1
      objectReference: {fileID: 0}
    - target: {fileID: 8372240870704346549, guid: 76eec16fc361c3e49b6d29db4a5f198b,
        type: 3}
      propertyPath: m_RootOrder
      value: 1
      objectReference: {fileID: 0}
    - target: {fileID: 8372240870704346549, guid: 76eec16fc361c3e49b6d29db4a5f198b,
        type: 3}
      propertyPath: m_LocalEulerAnglesHint.x
      value: 0
      objectReference: {fileID: 0}
    - target: {fileID: 8372240870704346549, guid: 76eec16fc361c3e49b6d29db4a5f198b,
        type: 3}
      propertyPath: m_LocalEulerAnglesHint.y
      value: 0
      objectReference: {fileID: 0}
    - target: {fileID: 8372240870704346549, guid: 76eec16fc361c3e49b6d29db4a5f198b,
        type: 3}
      propertyPath: m_LocalEulerAnglesHint.z
      value: 0
      objectReference: {fileID: 0}
    m_RemovedComponents: []
  m_SourcePrefab: {fileID: 100100000, guid: 76eec16fc361c3e49b6d29db4a5f198b, type: 3}
--- !u!1 &1735741949 stripped
GameObject:
  m_CorrespondingSourceObject: {fileID: 2461145002874975480, guid: a55f88977eaece745b6779ee54cae398,
    type: 3}
  m_PrefabInstance: {fileID: 1107904083}
  m_PrefabAsset: {fileID: 0}
--- !u!114 &1735741951
MonoBehaviour:
  m_ObjectHideFlags: 0
  m_CorrespondingSourceObject: {fileID: 0}
  m_PrefabInstance: {fileID: 0}
  m_PrefabAsset: {fileID: 0}
  m_GameObject: {fileID: 1735741949}
  m_Enabled: 1
  m_EditorHideFlags: 0
  m_Script: {fileID: 11500000, guid: 7a5ac11cc976e418e8d13136b07e1f52, type: 3}
  m_Name: 
  m_EditorClassIdentifier: 
  m_AgentTypeID: 0
  m_CollectObjects: 2
  m_Size: {x: 10, y: 10, z: 10}
  m_Center: {x: 0, y: 2, z: 0}
  m_LayerMask:
    serializedVersion: 2
    m_Bits: 4294967295
  m_UseGeometry: 0
  m_DefaultArea: 0
  m_IgnoreNavMeshAgent: 1
  m_IgnoreNavMeshObstacle: 1
  m_OverrideTileSize: 0
  m_TileSize: 256
  m_OverrideVoxelSize: 0
  m_VoxelSize: 0.16666667
  m_BuildHeightMesh: 0
  m_NavMeshData: {fileID: 23800000, guid: 84a4d84cd0e4d0242a6ef90bc0bb7191, type: 2}
--- !u!1001 &1955402358
PrefabInstance:
  m_ObjectHideFlags: 0
  serializedVersion: 2
  m_Modification:
    m_TransformParent: {fileID: 0}
    m_Modifications:
    - target: {fileID: 1722084123150156, guid: e9569c7e13e51264082910415a120d38, type: 3}
      propertyPath: m_Name
      value: Chomper
      objectReference: {fileID: 0}
    - target: {fileID: 4111328061247126, guid: e9569c7e13e51264082910415a120d38, type: 3}
      propertyPath: m_LocalPosition.x
      value: -100.00226
      objectReference: {fileID: 0}
    - target: {fileID: 4111328061247126, guid: e9569c7e13e51264082910415a120d38, type: 3}
      propertyPath: m_LocalPosition.y
      value: 18.735525
      objectReference: {fileID: 0}
    - target: {fileID: 4111328061247126, guid: e9569c7e13e51264082910415a120d38, type: 3}
      propertyPath: m_LocalPosition.z
      value: -40.665127
      objectReference: {fileID: 0}
    - target: {fileID: 4111328061247126, guid: e9569c7e13e51264082910415a120d38, type: 3}
      propertyPath: m_LocalRotation.x
      value: -0
      objectReference: {fileID: 0}
    - target: {fileID: 4111328061247126, guid: e9569c7e13e51264082910415a120d38, type: 3}
      propertyPath: m_LocalRotation.y
      value: -0.9630646
      objectReference: {fileID: 0}
    - target: {fileID: 4111328061247126, guid: e9569c7e13e51264082910415a120d38, type: 3}
      propertyPath: m_LocalRotation.z
      value: -0
      objectReference: {fileID: 0}
    - target: {fileID: 4111328061247126, guid: e9569c7e13e51264082910415a120d38, type: 3}
      propertyPath: m_LocalRotation.w
      value: 0.26927054
      objectReference: {fileID: 0}
    - target: {fileID: 4111328061247126, guid: e9569c7e13e51264082910415a120d38, type: 3}
      propertyPath: m_RootOrder
      value: 4
      objectReference: {fileID: 0}
    - target: {fileID: 4111328061247126, guid: e9569c7e13e51264082910415a120d38, type: 3}
      propertyPath: m_LocalEulerAnglesHint.x
      value: 0
      objectReference: {fileID: 0}
    - target: {fileID: 4111328061247126, guid: e9569c7e13e51264082910415a120d38, type: 3}
      propertyPath: m_LocalEulerAnglesHint.y
      value: -148.75801
      objectReference: {fileID: 0}
    - target: {fileID: 4111328061247126, guid: e9569c7e13e51264082910415a120d38, type: 3}
      propertyPath: m_LocalEulerAnglesHint.z
      value: 0
      objectReference: {fileID: 0}
    m_RemovedComponents: []
  m_SourcePrefab: {fileID: 100100000, guid: e9569c7e13e51264082910415a120d38, type: 3}
